Wire List

5 Connector Example                           Revised: Monday, October 29, 2007
1                                             Revision: A






<<< Component List >>>
J236                          J236      J236
J237                          J237      J237
J238                          J238      J238
J239                          J239      J239
J240                          J240      J240

<<< Wire List >>>

  NODE  REFERENCE    PIN #   PIN NAME           PIN TYPE       PART VALUE

[00001] N00469
        J237            7       7               Passive        J237
        J238            7       7               Passive        J238

[00002] N00511
        J237            22      22              Passive        J237
        J238            11      11              Passive        J238

[00003] N00487
        J237            24      24              Passive        J237
        J238            13      13              Passive        J238

[00004] N00481
        J237            6       6               Passive        J237
        J238            6       6               Passive        J238

[00005] N00529
        J237            2       2               Passive        J237
        J238            2       2               Passive        J238

[00006] N00475
        J237            25      25              Passive        J237
        J238            14      14              Passive        J238

[00007] N00463
        J237            28      28              Passive        J237
        J238            15      15              Passive        J238
        J237            26      26              Passive        J237
        J237            10      10              Passive        J237

[00008] N00541
        J237            1       1               Passive        J237
        J238            1       1               Passive        J238

[00009] N00380
        J237            17      17              Passive        J237
        J237            35      35              Passive        J237
        J237            18      18              Passive        J237
        J237            36      36              Passive        J237
        J240            8       8               Passive        J240
        J237            27      27              Passive        J237
        J237            37      37              Passive        J237
        J237            16      16              Passive        J237
        J237            34      34              Passive        J237
        J240            1       1               Passive        J240
        J236            3       3               Passive        J236
        J240            4       4               Passive        J240
        J239            1       1               Passive        J239
        J239            2       2               Passive        J239

[00010] N00505
        J237            4       4               Passive        J237
        J238            4       4               Passive        J238

[00011] N00499
        J237            23      23              Passive        J237
        J238            12      12              Passive        J238

[00012] N00523
        J237            21      21              Passive        J237
        J238            10      10              Passive        J238

[00013] N00493
        J237            5       5               Passive        J237
        J238            5       5               Passive        J238

[00014] N00535
        J237            20      20              Passive        J237
        J238            9       9               Passive        J238

[00015] N00517
        J237            3       3               Passive        J237
        J238            3       3               Passive        J238

[00016] N00374
        J236            2       2               Passive        J236
        J240            6       6               Passive        J240

[00017] N00457
        J237            9       9               Passive        J237
        J237            8       8               Passive        J237
        J238            8       8               Passive        J238

[00018] N00412
        J239            3       3               Passive        J239
        J240            3       3               Passive        J240

[00019] N00368
        J236            1       1               Passive        J236
        J240            2       2               Passive        J240

[00020] N02247
        J240            7       7               Passive        J240
        J239            4       4               Passive        J239

[00021] N03642
        J236            4       4               Passive        J236
        J237            19      19              Passive        J237

[00022] N06501
        J237            29      29              Passive        J237
        J237            11      11              Passive        J237

[00023] N06580
        J237            30      30              Passive        J237
        J237            12      12              Passive        J237

[00024] N06661
        J237            31      31              Passive        J237
        J237            13      13              Passive        J237

[00025] N06744
        J237            32      32              Passive        J237
        J237            14      14              Passive        J237

[00026] N06829
        J237            33      33              Passive        J237
        J237            15      15              Passive        J237

